{
    "site": "https://station.weather-software.com",
    "version": "3.9.2",
    "belchertown_version": "1.0.1",
    "weewxuptime": "0 days, 17 hours, 44 minutes",
    "serveruptime": "0 days, 17 hours, 44 minutes",
    "serverLocale": "en_US",
    "serverLocaleJS": "en-US",
    "localeEncoding": "UTF-8",
    "extras": {
        "belchertown_theme": "light",
        "belchertown_locale": "auto",
        "reload_hook_images": "0",
        "reload_images_radar": "300",
        "reload_images_hook_asi": "-1",
        "reload_images_hook_af": "-1",
        "reload_images_hook_as": "-1",
        "reload_images_hook_ac": "-1",
        "station_observations": "['barometer', 'dewpoint', 'outHumidity', 'rainWithRainRate']",
        "highcharts_homepage_graphgroup": "homepage",
        "show_apptemp": "0",
        "show_windrun": "0"
    },
    "station": {
        "hardware": "AcuRite 01536",
        "location": "Squalicum Valley",
        "latitude": "46.56' N",
        "longitude": "19.92' W",
        "latitude_dd": "48.776",
        "longitude_dd": "-122.332",
        "altitude": "656 feet",
        "archive_interval": "300",
        "archive_interval_ms": "300000"
    },
    "station_observations": {
        "current": {"barometer": "30.232 inHg", "dewpoint": "37.4 \u00b0F", "outHumidity": "99%", "rainWithRainRate": ""},
        "rounding": {"barometer": "3", "dewpoint": "1", "outHumidity": "0", "dayRain": "2", "rainRate": "2", "rainWithRainRate": ""},
        "unit_labels": {"barometer": " inHg", "dewpoint": " \u00b0F", "outHumidity": "%", "dayRain": " in", "rainRate": " in/hr", "rainWithRainRate": ""},
        "trend": {"pressure": "up"}
    },
    "current": {
        "datetime": "04/02/2020 02:35:00 PM",
        "epoch": "1585863318",
        "outTemp": "37.6 &#176;F",
        "outTemp_formatted": "37.6",
        "outHumidity": "99%",
        "windchill": "35.9 &#176;F",
        "heatindex": "37.6 &#176;F",
        "dewpoint": "37.4 &#176;F",
        "barometer": "30.232 inHg",
        "barometer_trend": "0.011 inHg",
        "windspeed": "3 mph",
        "winddir": "62&#176;",
        "winddir_formatted": "62",
        "windGust": "4 mph",
        "windGust_formatted": "4",
        "windGustDir": "68&#176;",
        "windcompass": "ENE",
        "rainRate": "0.01 in/hr",
        "rain": "0.00 in"
    },
    "day": {
        "outTemp": {
            "max": "43.2 &#176;F",
            "maxtime": "12:42:53 PM",
            "min": "28.9 &#176;F",
            "mintime": "02:45:31 AM"
        },
        "heatindex": {
            "max": "43.2 &#176;F",
            "maxtime": "12:42:53 PM"
        },
        "windchill": {
            "max": "27.1 &#176;F",
            "maxtime": "06:34:56 AM"
        },
        "humidity": {
            "max": "99%",
            "maxtime": "12:13:41 AM",
            "min": "83%",
            "mintime": "08:52:22 AM"
        },
        "dewpoint": {
            "max": "41.7 &#176;F",
            "maxtime": "11:55:17 AM",
            "min": "28.7 &#176;F",
            "mintime": "02:45:31 AM"
        },
        "barometer": {
            "max": "30.241 inHg",
            "maxtime": "10:48:00 AM",
            "min": "30.180 inHg",
            "mintime": "12:33:35 AM"
        },
        "rain": {
            "sum": "0.14 in",
            "max": "0.36 in/hr",
            "maxtime": "02:14:13 PM"
        },        
        "wind": {
            "max": "10 mph",
            "maxtime": "12:45:36 PM",
            "gustdir": "292&#176;",
            "average": "1 mph",
            "vectordir": "2&#176;",
            "vectoravg": "1 mph",
            "rms": "2 mph"
        },
        "uv": {
            "max": "   N/A",
            "maxtime": "   N/A",
            "min": "   N/A",
            "mintime": "   N/A"
        },
        "solar_radiation": {
            "max": "   N/A",
            "maxtime": "   N/A",
            "min": "   N/A",
            "mintime": "   N/A"
        }
    },
    
    "week": {
        "outTemp": {
            "max": "57.2 &#176;F",
            "maxtime": "02:21:26 PM (Sunday)",
            "min": "28.9 &#176;F",
            "mintime": "02:45:31 AM (Thursday)"
        },
        "heatindex": {
            "max": "57.2 &#176;F",
            "maxtime": "02:21:26 PM (Sunday)"
        },
        "windchill": {
            "max": "25.8 &#176;F",
            "maxtime": "10:49:21 PM (Wednesday)"
        },
        "humidity": {
            "max": "99%",
            "maxtime": "12:00:16 AM (Sunday)",
            "min": "48%",
            "mintime": "02:40:50 PM (Wednesday)"
        },
        "dewpoint": {
            "max": "47.6 &#176;F",
            "maxtime": "02:16:37 PM (Sunday)",
            "min": "26.6 &#176;F",
            "mintime": "08:56:22 PM (Wednesday)"
        },
        "barometer": {
            "max": "30.241 inHg",
            "maxtime": "10:48:00 AM (Thursday)",
            "min": "29.560 inHg",
            "mintime": "04:45:00 AM (Monday)"
        },
        "rain": {
            "sum": "1.60 in",
            "max": "0.52 in/hr",
            "maxtime": "07:51:30 AM (Sunday)"
        },        
        "wind": {
            "max": "24 mph",
            "maxtime": "02:50:39 AM (Monday)",
            "gustdir": "   N/A",
            "average": "4 mph",
            "vectordir": "152&#176;",
            "vectoravg": "2 mph",
            "rms": "5 mph"
        },
        "uv": {
            "max": "   N/A",
            "maxtime": "   N/A",
            "min": "   N/A",
            "mintime": "   N/A"
        },
        "solar_radiation": {
            "max": "   N/A",
            "maxtime": "   N/A",
            "min": "   N/A",
            "mintime": "   N/A"
        }
    },
    
    "month": {
        "outTemp": {
            "max": "51.8 &#176;F",
            "maxtime": "04/01/2020 12:37:19 PM",
            "min": "28.9 &#176;F",
            "mintime": "04/02/2020 02:45:31 AM"
        },
        "heatindex": {
            "max": "51.8 &#176;F",
            "maxtime": "04/01/2020 12:37:19 PM"
        },
        "windchill": {
            "max": "25.8 &#176;F",
            "maxtime": "04/01/2020 10:49:21 PM"
        },
        "humidity": {
            "max": "99%",
            "maxtime": "04/01/2020 12:00:35 AM",
            "min": "48%",
            "mintime": "04/01/2020 02:40:50 PM"
        },
        "dewpoint": {
            "max": "42.2 &#176;F",
            "maxtime": "04/01/2020 09:38:58 AM",
            "min": "26.6 &#176;F",
            "mintime": "04/01/2020 08:56:22 PM"
        },
        "barometer": {
            "max": "30.241 inHg",
            "maxtime": "04/02/2020 10:48:00 AM",
            "min": "30.074 inHg",
            "mintime": "04/01/2020 12:10:00 AM"
        },
        "rain": {
            "sum": "0.16 in",
            "max": "0.36 in/hr",
            "maxtime": "04/02/2020 02:14:13 PM"
        },        
        "wind": {
            "max": "17 mph",
            "maxtime": "04/01/2020 03:41:09 PM",
            "gustdir": "   N/A",
            "average": "3 mph",
            "vectordir": "352&#176;",
            "vectoravg": "2 mph",
            "rms": "4 mph"
        },
        "uv": {
            "max": "   N/A",
            "maxtime": "   N/A",
            "min": "   N/A",
            "mintime": "   N/A"
        },
        "solar_radiation": {
            "max": "   N/A",
            "maxtime": "   N/A",
            "min": "   N/A",
            "mintime": "   N/A"
        }
    },
    
    "year": {
        "outTemp": {
            "max": "65.8 &#176;F",
            "maxtime": "03/20/2020 03:00:15 PM",
            "min": "13.1 &#176;F",
            "mintime": "01/14/2020 05:25:00 PM"
        },
        "heatindex": {
            "max": "65.8 &#176;F",
            "maxtime": "03/20/2020 03:00:15 PM"
        },
        "windchill": {
            "max": "2.6 &#176;F",
            "maxtime": "01/14/2020 09:31:08 PM"
        },
        "humidity": {
            "max": "99%",
            "maxtime": "01/11/2020 08:30:51 PM",
            "min": "26%",
            "mintime": "03/16/2020 02:22:52 PM"
        },
        "dewpoint": {
            "max": "54.9 &#176;F",
            "maxtime": "01/31/2020 05:27:36 PM",
            "min": "10.1 &#176;F",
            "mintime": "03/15/2020 06:55:37 AM"
        },
        "barometer": {
            "max": "31.100 inHg",
            "maxtime": "01/11/2020 08:03:12 PM",
            "min": "29.391 inHg",
            "mintime": "01/15/2020 09:43:53 PM"
        },
        "rain": {
            "sum": "22.91 in",
            "max": "0.84 in/hr",
            "maxtime": "02/07/2020 06:04:26 PM"
        },        
        "wind": {
            "max": "39 mph",
            "maxtime": "01/21/2020 07:31:34 AM",
            "gustdir": "   N/A",
            "average": "3 mph",
            "vectordir": "154&#176;",
            "vectoravg": "2 mph",
            "rms": "5 mph"
        },
        "uv": {
            "max": "0.0",
            "maxtime": "01/11/2020 08:03:12 PM",
            "min": "0.0",
            "mintime": "01/11/2020 08:03:12 PM"
        },
        "solar_radiation": {
            "max": "0 W/m&#178;",
            "maxtime": "01/11/2020 08:03:12 PM",
            "min": "0 W/m&#178;",
            "mintime": "01/11/2020 08:03:12 PM"
        }
    },
    "almanac": {
        "sunrise": "06:43:04 AM",
        "sunrise_epoch": "1585834984.12",
        "sunrise_hour": "06",
        "sunrise_minute": "43",
        "sunset": "07:43:15 PM",
        "sunset_epoch": "1585881795.2",
        "sunset_hour": "19",
        "sunset_minute": "43",
        "moon": {
            "moon_fullness": "66",
            "moon_phase": "Waxing gibbous"
        }
    }
}
