                     CLIMATOLOGICAL SUMMARY for year 2020


NAME: Squalicum Valley                  
ELEV: 656 feet    LAT: 48-46.56 N    LONG: 122-19.92 W


                                       TEMPERATURE (F)

                              HEAT    COOL                              MAX    MAX    MIN    MIN
          MEAN   MEAN         DEG     DEG                                >=     <=     <=     <=
 YR  MO   MAX    MIN    MEAN  DAYS    DAYS      HI  DAY     LOW  DAY     90     32     32      0
------------------------------------------------------------------------------------------------
2020 01   45.6   32.6   38.8  554.2    0.0    55.2   31    13.1   14      0      2      7      0
2020 02   48.6   32.3   39.0  755.1    0.0    59.4   21    26.8   18      0      0     16      0
2020 03   52.8   33.1   41.0  745.5    0.0    65.8   20    22.6   15      0      0     13      0
2020 04   47.5   29.3   38.3   54.7    0.0    51.8   01    28.9   02      0      0      2      0
2020 05
2020 06
2020 07
2020 08
2020 09
2020 10
2020 11
2020 12
------------------------------------------------------------------------------------------------
          49.4   32.6   39.7 2109.5    0.0    65.8  Mar    13.1  Jan      0      2     38      0


                  PRECIPITATION (in)

                  MAX         ---DAYS OF RAIN---
                  OBS.               OVER
 YR  MO  TOTAL    DAY  DATE   0.01   0.10   1.00
------------------------------------------------
2020 01   9.41   2.31    31     18     14      2
2020 02   6.97   1.27    05     24     15      2
2020 03   6.37   1.32    23     18     12      1
2020 04   0.16   0.14    02      2      1      0
2020 05
2020 06
2020 07
2020 08
2020 09
2020 10
2020 11
2020 12
------------------------------------------------
         22.91   2.31   Jan     62     42      5


           WIND SPEED (mph)

                                DOM
 YR  MO    AVG     HI   DATE    DIR
-----------------------------------
2020 01    4.1   38.7     21    151
2020 02    2.4   33.5     01    159
2020 03    3.7   24.8     03    155
2020 04    2.7   17.1     01    352
2020 05
2020 06
2020 07
2020 08
2020 09
2020 10
2020 11
2020 12
-----------------------------------
           3.3   38.7    Jan    154
